{
  "@context": {
    "cc": "http://creativecommons.org/ns#",
    "schema": "http://schema.org/",
    "cred": "https://www.w3.org/2018/credentials#",
    "void": "http://rdfs.org/ns/void#",
    "owl": "http://www.w3.org/2002/07/owl#",
    "xsd": "http://www.w3.org/2001/XMLSchema#",
    "gax-validation": "http://w3id.org/gaia-x/validation#",
    "skos": "http://www.w3.org/2004/02/skos/core#",
    "voaf": "http://purl.org/vocommons/voaf#",
    "rdfs": "http://www.w3.org/2000/01/rdf-schema#",
    "vcard": "http://www.w3.org/2006/vcard/ns#",
    "gax-core": "http://w3id.org/gaia-x/core#",
    "dct": "http://purl.org/dc/terms/",
    "sh": "http://www.w3.org/ns/shacl#",
    "gax-trust-framework": "http://w3id.org/gaia-x/gax-trust-framework#",
    "rdf": "http://www.w3.org/1999/02/22-rdf-syntax-ns#",
    "ids": "https://w3id.org/idsa/core/",
    "dcat": "http://www.w3.org/ns/dcat#",
    "vann": "http://purl.org/vocab/vann/",
    "foaf": "http://xmlns.com/foaf/0.1/",
    "did": "https://www.w3.org/TR/did-core/#"
  },
  "@id": "https://arlabdevelopments.com/.well-known/servers/SDbaremetalIxS.json",
  "@type": "gax-trust-framework:BareMetal",
  "gax-core:offeredBy": {
    "@id": "https://arlabdevelopments.com/.well-known/ArsysInternetParticipantSD.json"
  },
  "gax-trust-framework:codeArtifact": [
    {
      "@id": "https://arlabdevelopments.com/.well-known/resources/imageCentos7.json"
    }
  ],
  "gax-trust-framework:name": {
    "@value": "Dedicated Server ixS",
    "@type": "xsd:string"
  },
  "gax-trust-framework:instantiationReq": [
    {
      "@id": "https://arlabdevelopments.com/.well-known/hwc/hwc_410030SD.json"
    }
  ],
  "gax-trust-framework:termsAndConditions": [
    {
      "@type": "gax-trust-framework:TermsAndConditions",
      "gax-trust-framework:content": {
        "@value": "https://www.arsys.net/legal",
        "@type": "xsd:anyURI"
      },
      "gax-trust-framework:hash": {
        "@value": "0cf73cbb47217865004ae15949348f65272dda4da862e54c6b83615e8256809",
        "@type": "xsd:string"
      }
    },
    {
      "@type": "gax-trust-framework:TermsAndConditions",
      "gax-trust-framework:content": {
        "@value": "https://www.arsys.net/terms/promo-30-dias-gratis-cloudbuildernext_sd_virt_chg",
        "@type": "xsd:anyURI"
      },
      "gax-trust-framework:hash": {
        "@value": "5412445e36497460d1c53f394721e4ef792122b192218165e1df1045a07b7af1",
        "@type": "xsd:string"
      }
    }
  ],
  "gax-trust-framework:policy": {
    "@value": "https://www.arsys.net/servers/dedicated",
    "@type": "xsd:string"
  },
  "gax-trust-framework:dataProtectionRegime": {
    "@value": "GDPR2016",
    "@type": "xsd:string"
  },
  "gax-trust-framework:dataAccountExport": [
    {
      "@type": "gax-trust-framework:DataAccountExport",
      "gax-trust-framework:requestType": {
        "@value": "API",
        "@type": "xsd:string"
      },
      "gax-trust-framework:accessType": {
        "@value": "digital",
        "@type": "xsd:string"
      },
      "gax-trust-framework:formatType": {
        "@value": "application/json",
        "@type": "xsd:string"
      }
    },
    {
      "@type": "gax-trust-framework:DataAccountExport",
      "gax-trust-framework:requestType": {
        "@value": "email",
        "@type": "xsd:string"
      },
      "gax-trust-framework:accessType": {
        "@value": "digital",
        "@type": "xsd:string"
      },
      "gax-trust-framework:formatType": {
        "@value": "mime/png",
        "@type": "xsd:string"
      }
    },
    {
      "@type": "gax-trust-framework:DataAccountExport",
      "gax-trust-framework:requestType": {
        "@value": "webform",
        "@type": "xsd:string"
      },
      "gax-trust-framework:accessType": {
        "@value": "digital",
        "@type": "xsd:string"
      },
      "gax-trust-framework:formatType": {
        "@value": "text/html",
        "@type": "xsd:string"
      }
    }
  ],
  "dct:description": {
    "@value": "Arsys Baremetal Server - ixS model",
    "@type": "xsd:string"
  },
  "dcat:keyword": [
    {
      "@value": "arsys",
      "@type": "xsd:string"
    },
    {
      "@value": "baremetal",
      "@type": "xsd:string"
    },
    {
      "@value": "cloud",
      "@type": "xsd:string"
    }
  ],
  "gax-trust-framework:providedBy": {
    "@id": "https://arlabdevelopments.com/.well-known/ArsysInternetParticipantSD.json"
  },
  "gax-trust-framework:ServiceOfferingLocations": {
    "@value": "https://arlabdevelopments.com/.well-known/datacenters/serviceDatacenterEsSD.json",
    "@type": "xsd:string"
  }
}