{
  "selfDescriptionCredential": {
    "@context": [
      "https://www.w3.org/2018/credentials/v1",
      "https://registry.gaia-x.eu/v2206/api/shape"
    ],
    "id": "https://arlabdevelopments.com/.well-known/resources/softwareVeeamBackup.json",
    "type": [
      "VerifiableCredential",
      "ServiceOfferingExperimental",
      "SoftwareResource"
    ],
    "issuer": "did:web:arlabdevelopments.com",
    "issuanceDate": "2022-12-29T00:00:00.000Z",
    "credentialSubject": {
      "id": "https://arlabdevelopments.com/.well-known/resources/softwareVeeamBackup.json",
      "gx-service-offering:providedBy": "https://arlabdevelopments.com/.well-known/ArsysInternetParticipant.json",
      "gx-service-offering:maintainedBy": "https://arlabdevelopments.com/.well-known/ArsysInternetParticipant.json",
      "gx-service-offering:ownedBy": "https://arlabdevelopments.com/.well-known/ArsysInternetParticipant.json",
      "gx-service-offering:termsAndConditions": [
        {
          "gx-service-offering:url": "https://www.arsys.net/legal",
          "gx-service-offering:hash": "70cf73cbb47217865004ae15949348f65272dda4da862e54c6b83615e8256809"
        }
      ],
      "gx-service-offering:gdpr": [
        {
          "gx-service-offering:imprint": "https://www.arsys.net/legal"
        },
        {
          "gx-service-offering:privacyPolicy": "https://www.arsys.net/terms/personal-data-protection"
        }
      ],
      "gx-service-offering:dataProtectionRegime": [
        "GDPR2016"
      ],
      "gx-service-offering:dataExport": [
        {
          "gx-service-offering:requestType": "email",
          "gx-service-offering:accessType": "digital",
          "gx-service-offering:formatType": "text/html"
        }
      ],
      "gx-service-offering:name": "Veeam backup & replication",
      "gx-service-offering:description": "Backup service for Arsys cloud servers offering",
      "gx-service-offering:policy": "default: allow",
      "gx-service-offering:copyrightOwnedBy": "Veeam Software",
      "gx-service-offering:license": [
        "https://www.veeam.com/licensing-policy.html"
      ]
    },
    "proof": {
      "type": "JsonWebSignature2020",
      "created": "2022-12-29T07:25:35.465Z",
      "proofPurpose": "assertionMethod",
      "verificationMethod": "did:web:arlabdevelopments.com",
      "jws": "eyJhbGciOiJQUzI1NiIsImI2NCI6ZmFsc2UsImNyaXQiOlsiYjY0Il19..nvj7NWjLnXkARvoXYTbq24HWR8ArZPHDyoT1oHzNxiuyMEso4SgjSaOysb48b7CG2r02ivO7ktNX7WnGz28nXGlQkh4eTdkCQDNV0b02KMg8-2DPqhObRZsDd_nuygNmKJf6pOsPseFBuN0H_fImNrAxwMsRRPyVrQX4VC1a8U1qtmEcd3QaGsLgZeI-R302eLrAXkU42yuCscFHSer6nlUyoH_VNrx5jjtI8jbyAcIa8dkiv86JVBpuEG_ka6QkhmYbOggTL0HkVzYWy_FXMZCiKE_LPXm00HK5QOTTiY4OBygplhouzVHdzBQxHLgduI9we4Siem0GMUE_VFTRxQ"
    }
  },
  "complianceCredential": {
    "@context": [
      "https://www.w3.org/2018/credentials/v1"
    ],
    "type": [
      "VerifiableCredential",
      "ServiceOfferingCredentialExperimental"
    ],
    "id": "https://catalogue.gaia-x.eu/credentials/ServiceOfferingCredentialExperimental/1672298752081",
    "issuer": "did:web:compliance.gaia-x.eu",
    "issuanceDate": "2022-12-29T07:25:52.081Z",
    "credentialSubject": {
      "id": "https://arlabdevelopments.com/.well-known/resources/softwareVeeamBackup.json",
      "hash": "f06e26b6ed1baea51c73193e5aa1d5ebe7a3d4a142ae59c710c78245eb972d07"
    },
    "proof": {
      "type": "JsonWebSignature2020",
      "created": "2022-12-29T07:25:52.081Z",
      "proofPurpose": "assertionMethod",
      "jws": "eyJhbGciOiJQUzI1NiIsImI2NCI6ZmFsc2UsImNyaXQiOlsiYjY0Il19..VWIMOVFanoQhiXUQ5vkA2KjrqCp6S28kABFBcLGjQLNXxZlu5O3OpCKiP3CkJNExgtkNM_xvNVadqO9kOVUiP94nlFA9iT2qyOUirCJUFqvb7NdBlPpcNTVC5lBuGT_G8oz3h7du8PCX1iigMTVFFVETAChULpYLXql-zjo2KbpD2mxPdBoTaSsE6_d-pMomzqcuNuyyoY520KzlGfCnVczh8yBb2HAE6XuJ5grhuNguWGizNZ3FtySY_q6_aMEEduak0mMhKNJgtTHVYsMz7SjRU6R3s7sLeXJKL_U9psocl3uBnekcuPgkYkWfyC-kMHYGciJeh5wOxLYIhE1NVQ",
      "verificationMethod": "did:web:compliance.gaia-x.eu"
    }
  }
}