{
  "@context": {
    "cc": "http://creativecommons.org/ns#",
    "schema": "http://schema.org/",
    "cred": "https://www.w3.org/2018/credentials#",
    "void": "http://rdfs.org/ns/void#",
    "owl": "http://www.w3.org/2002/07/owl#",
    "xsd": "http://www.w3.org/2001/XMLSchema#",
    "gax-validation": "http://w3id.org/gaia-x/validation#",
    "skos": "http://www.w3.org/2004/02/skos/core#",
    "voaf": "http://purl.org/vocommons/voaf#",
    "rdfs": "http://www.w3.org/2000/01/rdf-schema#",
    "vcard": "http://www.w3.org/2006/vcard/ns#",
    "gax-core": "http://w3id.org/gaia-x/core#",
    "dct": "http://purl.org/dc/terms/",
    "sh": "http://www.w3.org/ns/shacl#",
    "gax-trust-framework": "http://w3id.org/gaia-x/gax-trust-framework#",
    "rdf": "http://www.w3.org/1999/02/22-rdf-syntax-ns#",
    "ids": "https://w3id.org/idsa/core/",
    "dcat": "http://www.w3.org/ns/dcat#",
    "vann": "http://purl.org/vocab/vann/",
    "foaf": "http://xmlns.com/foaf/0.1/",
    "did": "https://www.w3.org/TR/did-core/#"
  },
  "@id": "https://arlabdevelopments.com/.well-known/resources/software_centos7SD.json",
  "@type": "gax-trust-framework:SoftwareResource",
  "gax-trust-framework:name": {
    "@value": "Centos 7",
    "@type": "xsd:string"
  },
  "gax-trust-framework:copyrightOwnedBy": {
    "@type": "foaf:Agent",
    "foaf:name": {
      "@value": "The CentOS Project",
      "@type": "xsd:string"
    }
  },
  "gax-core:operatedBy": {
    "@id": "https://arlabdevelopments.com/.well-known/ArsysInternetParticipantSD.json"
  },
  "dct:description": {
    "@value": "Consistent, manageable platform that suits a wide variety of deployments",
    "@type": "xsd:string"
  },
  "gax-trust-framework:license": [
    {
      "@value": "https://opensource.org/licenses/0BSD",
      "@type": "xsd:string"
    },
    {
      "@value": "http://spdx.org/licenses/389-exception",
      "@type": "xsd:string"
    },
    {
      "@value": "https://www.centos.org/legal",
      "@type": "xsd:string"
    }
  ],
  "gax-trust-framework:policy": {
    "@value": "default: allow",
    "@type": "xsd:string"
  }
}