{
  "@context": {
    "cc": "http://creativecommons.org/ns#",
    "schema": "http://schema.org/",
    "cred": "https://www.w3.org/2018/credentials#",
    "void": "http://rdfs.org/ns/void#",
    "owl": "http://www.w3.org/2002/07/owl#",
    "xsd": "http://www.w3.org/2001/XMLSchema#",
    "gax-validation": "http://w3id.org/gaia-x/validation#",
    "skos": "http://www.w3.org/2004/02/skos/core#",
    "voaf": "http://purl.org/vocommons/voaf#",
    "rdfs": "http://www.w3.org/2000/01/rdf-schema#",
    "vcard": "http://www.w3.org/2006/vcard/ns#",
    "gax-core": "http://w3id.org/gaia-x/core#",
    "dct": "http://purl.org/dc/terms/",
    "sh": "http://www.w3.org/ns/shacl#",
    "gax-trust-framework": "http://w3id.org/gaia-x/gax-trust-framework#",
    "rdf": "http://www.w3.org/1999/02/22-rdf-syntax-ns#",
    "ids": "https://w3id.org/idsa/core/",
    "dcat": "http://www.w3.org/ns/dcat#",
    "vann": "http://purl.org/vocab/vann/",
    "foaf": "http://xmlns.com/foaf/0.1/",
    "did": "https://www.w3.org/TR/did-core/#"
  },
  "@id": "https://arlabdevelopments.com/.well-known/hwc/hwc_410030SD.json",
  "@type": "gax-trust-framework:ServerFlavor",
  "gax-core:name": {
    "@value": "Arsys Baremetal Hardware classes - HWC_410030",
    "@type": "xsd:string"
  },
  "gax-trust-framework:cpuReq": {
    "@type": "gax-trust-framework:CPU",
    "gax-trust-framework:name": {
      "@value": "Intel® Xeon® Processor E3 v6 Family",
      "@type": "xsd:string"
    },
    "gax-trust-framework:cpuArchitecture": "x86-64",
    "gax-trust-framework:vendor": "intel",
    "gax-trust-framework:cpuGeneration": "Icelake-Server-v4",
    "gax-trust-framework:cpuFlag": [
      {
        "@value": "Intel® SSE4.1",
        "@type": "xsd:string"
      },
      {
        "@value": "Intel® SSE4.2",
        "@type": "xsd:string"
      },
      {
        "@value": "Intel® AVX2",
        "@type": "xsd:string"
      }
    ],
    "gax-trust-framework:smtIsEnabled": false,
    "gax-trust-framework:numberOfSockets": 1,	
    "gax-trust-framework:numberOfCores": 4,
    "gax-trust-framework:numberOfThreads": 8,
    "gax-trust-framework:baseFrequency": {
      "@type": "gax-trust-framework:Measure",
      "gax-trust-framework:value": [
        {
          "@value": "3,50",
          "@type": "xsd:float"
        },
      ],
      "gax-trust-framework:unit": [
        {
          "@value": "GHz",
          "@type": "xsd:string"
        }
      ]
    },
    "gax-trust-framework:boostFrequency": {
      "@type": "gax-trust-framework:Measure",
      "gax-trust-framework:value": [
        {
          "@value": "3,90",
          "@type": "xsd:float"
        },
      ],
      "gax-trust-framework:unit": [
        {
          "@value": "GHz",
          "@type": "xsd:string"
        }
      ]
    },
    "gax-trust-framework:lastLevelCacheSize": {
      "@type": "gax-trust-framework:Measure",
      "gax-trust-framework:value": [
        {
          "@value": "8",
          "@type": "xsd:float"
        },
      ],
      "gax-trust-framework:unit": [
        {
          "@value": "MB",
          "@type": "xsd:string"
        }
      ]
    },
    "gax-trust-framework:tdp": {
      "@type": "gax-trust-framework:Measure",
      "gax-trust-framework:value": [
        {
          "@value": "72",
          "@type": "xsd:float"
        },
      ],
      "gax-trust-framework:unit": [
        {
          "@value": "W",
          "@type": "xsd:string"
        }
      ]
    },
  },
  "gax-trust-framework:memoryReq": {
    "@type": "gax-trust-framework:Memory",
    "gax-trust-framework:name": {
      "@value": "Memory specifications",
      "@type": "xsd:string"
    },
    "gax-trust-framework:size": {
      "@type": "gax-trust-framework:Measure",
      "gax-trust-framework:value": [
        {
          "@value": "64",
          "@type": "xsd:float"
        },
      ],
      "gax-trust-framework:unit": [
        {
          "@value": "GB",
          "@type": "xsd:string"
        }
      ]
    },
    "gax-trust-framework:vendor": "intel",
    "gax-trust-framework:memclass": {
      "@value": "DDR4-2400, DDR3L-1866",
      "@type": "xsd:string"
    }
  },
  "gax-core:description": {
    "@value": "Intel Xeon E3-1230v6, 16384MB, 2x1TB HDD/Softraid",
    "@type": "xsd:string"
  },
  "gax-trust-framework:networkReq": {
    "@id": "https://arlabdevelopments.com/.well-known/resources/networking.json"
  },
  "gax-trust-framework:bootVolumeReq": {
    "@type": "gax-trust-framework:Disk",
    "gax-trust-framework:name": {
      "@value": "HDD specifications",
      "@type": "xsd:string"
    },
    "gax-trust-framework:size": {
      "@type": "gax-trust-framework:Measure",
      "gax-trust-framework:value": [
        {
          "@value": "1000",
          "@type": "xsd:float"
        },
      ],
      "gax-trust-framework:unit": [
        {
          "@value": "GB",
          "@type": "xsd:string"
        }
      ]
    },
    "gax-trust-framework:vendor": "intel",
    "gax-trust-framework:type": {
      "@value": "local HDD",
      "@type": "xsd:string"
    },
    "gax-trust-framework:encryption": {
      "@type": "gax-trust-framework:Encryption"
    },
    "gax-trust-framework:keyManagement": {
      "@value": "Managed",
      "@type": "xsd:string"
    }
  },
  "gax-trust-framework:additionalVolumeReq": {
    "@type": "gax-trust-framework:Disk",
    "gax-trust-framework:name": {
      "@value": "HDD specifications",
      "@type": "xsd:string"
    },
    "gax-trust-framework:size": {
      "@type": "gax-trust-framework:Measure",
      "gax-trust-framework:value": [
        {
          "@value": "1000",
          "@type": "xsd:float"
        },
      ],
      "gax-trust-framework:unit": [
        {
          "@value": "GB",
          "@type": "xsd:string"
        }
      ]
    },
    "gax-trust-framework:vendor": "intel",
    "gax-trust-framework:type": {
      "@value": "local HDD",
      "@type": "xsd:string"
    },
    "gax-trust-framework:encryption": {
      "@type": "gax-trust-framework:Encryption"
    },
    "gax-trust-framework:keyManagement": {
      "@value": "Managed",
      "@type": "xsd:string"
    }
  },  
  "gax-trust-framework:isConfidential": false,
  "gax-trust-framework:attestationServiceURI": {
    "@value": "https://ark.intel.com/content/www/us/en/ark/products/97474/intel-xeon-processor-e31230-v6-8m-cache-3-50-ghz.html",
    "@type": "xsd:anyURI"
  }  
}