{
  "selfDescriptionCredential": {
    "@context": [
      "https://www.w3.org/2018/credentials/v1",
      "https://registry.gaia-x.eu/v2206/api/shape"
    ],
    "id": "https://arlabdevelopments.com/.well-known/datacenters/serviceDatacenterEs.json",
    "type": [
      "VerifiableCredential",
      "ServiceOfferingExperimental",
      "physicalResource"
    ],
    "issuer": "did:web:arlabdevelopments.com",
    "issuanceDate": "2022-12-28T00:00:00.000Z",
    "credentialSubject": {
      "id": "https://arlabdevelopments.com/.well-known/datacenters/serviceDatacenterEs.json",
      "gx-service-offering:providedBy": "https://arlabdevelopments.com/.well-known/ArsysInternetParticipant.json",
      "gx-service-offering:maintainedBy": "https://arlabdevelopments.com/.well-known/ArsysInternetParticipant.json",
      "gx-service-offering:ownedBy": "https://arlabdevelopments.com/.well-known/ArsysInternetParticipant.json",
      "gx-service-offering:termsAndConditions": [
        {
          "gx-service-offering:url": "https://www.arsys.net/legal",
          "gx-service-offering:hash": "70cf73cbb47217865004ae15949348f65272dda4da862e54c6b83615e8256809"
        }
      ],
      "gx-service-offering:gdpr": [
        {
          "gx-service-offering:imprint": "https://www.arsys.net/legal"
        },
        {
          "gx-service-offering:privacyPolicy": "https://www.arsys.net/terms/personal-data-protection"
        }
      ],
      "gx-service-offering:dataProtectionRegime": [
        "GDPR2016"
      ],
      "gx-service-offering:name": "Datacenter Logroño (Spain)",
      "gx-service-offering:description": "Arsys Internet datacenter located at La Portalada, Logroño (Spain)",
      "gx-service-offering:webAddress": "https://www.arsys.net",
      "gx-service-offering:legalAddress": {
        "gx-service-offering:addressCountryCode": "ES",
        "gx-service-offering:addressCode": "ES-RI",
        "gx-service-offering:streetAddress": "Circunde 16",
        "gx-service-offering:postalCode": "26006",
        "gx-service-offering:locality": "Logroño"
      },
      "gx-service-offering:locationAddress": [
        {
          "gx-service-offering:countryCode": "ES"
        }
      ],
      "gx-service-offering:location": [
        {
          "gx-service-offering:gps": "42.45754783585222, -2.3976922306120074"
        }
      ],
      "gx-service-offering:dataExport": [
        {
          "gx-service-offering:requestType": "email",
          "gx-service-offering:accessType": "digital",
          "gx-service-offering:formatType": "text/html"
        },
        {
          "gx-service-offering:requestType": "supportCenter",
          "gx-service-offering:accessType": "physical",
          "gx-service-offering:formatType": "text/html"
        }
      ]
    },
    "proof": {
      "type": "JsonWebSignature2020",
      "created": "2022-12-28T12:08:47.658Z",
      "proofPurpose": "assertionMethod",
      "verificationMethod": "did:web:arlabdevelopments.com",
      "jws": "eyJhbGciOiJQUzI1NiIsImI2NCI6ZmFsc2UsImNyaXQiOlsiYjY0Il19..ehK_5ZA3SpWegb85aQMuDhGkb9pgOeXd2133vSFBJVdg-3r4Erw6E5VwobgKs8Y0r26QYGjvSx-keKOrqYJKGqtahWGLUPlA5rps9kf9rMdLHR3RQt8dr4vce_Kqc6c4YZmpeaFLEyZz0JQebUo73duu-t91-4YZmxCEc-W-LYNHcwy3yNGnZwd9BQfZ9VZZD4CmHLsU6ZFjRXJduk72SuEkWGGKY7_u7dbRH36GTZl75ICFMsTHv7ZSaMCpvjRSobVmWPEkKpQLb0xVcs15ESv065XlbogrNAfv_tkTNKEUMKszX50IjW2uZab7irbkOVYTxtrkaJ4gsa3ZEvvd5w"
    }
  },
  "complianceCredential": {
    "@context": [
      "https://www.w3.org/2018/credentials/v1"
    ],
    "type": [
      "VerifiableCredential",
      "ServiceOfferingCredentialExperimental"
    ],
    "id": "https://catalogue.gaia-x.eu/credentials/ServiceOfferingCredentialExperimental/1672229344497",
    "issuer": "did:web:compliance.gaia-x.eu",
    "issuanceDate": "2022-12-28T12:09:04.497Z",
    "credentialSubject": {
      "id": "https://arlabdevelopments.com/.well-known/datacenters/serviceDatacenterEs.json",
      "hash": "36a84196d552bc92f77789db6957c901d306008219d3772dfd556b19eaa44b1a"
    },
    "proof": {
      "type": "JsonWebSignature2020",
      "created": "2022-12-28T12:09:04.497Z",
      "proofPurpose": "assertionMethod",
      "jws": "eyJhbGciOiJQUzI1NiIsImI2NCI6ZmFsc2UsImNyaXQiOlsiYjY0Il19..fZYesv-9fLvdYAfxnQCWGbFK11-d-M-2ntq7rBaOZtLXmwwP9uPjMmlBy7u9lHKnYjlMfQE1_QHTce_tBmUHiwpFFuWAorotYII08pLV6bnZUJwSG3YwB5JQVL4S6XQ1cYAGFxnt65-r5W60RDeUVcfDZReH-HdkUFUurqF3teZC7exxA26dbPa0HyJA0m8pvZ0FpavQCodWInJS3bQ4gTc7Qm8UjzcAEDvhUGrDlZgjQ7CfxE2E0wyCgqYR3DDY5Ap-Ex3GXD4fIrRKwKYvj9S7uNSlT8oHB6gdifMhZzOrVa8XE5lUYFnKIM_yWfkhTip0olVr7RmWM0DQ61Fh8A",
      "verificationMethod": "did:web:compliance.gaia-x.eu"
    }
  }
}